\babel@toc {czech}{}
\beamer@sectionintoc {1}{Uvod}{1}{0}{1}
\beamer@sectionintoc {2}{Info}{2}{0}{2}
\beamer@sectionintoc {3}{Moduly}{8}{0}{3}
\beamer@sectionintoc {4}{Detekce \IeC {\v r}e\IeC {\v c}i}{9}{0}{4}
\beamer@sectionintoc {5}{Rozpozn\IeC {\'a}n\IeC {\'\i } a vykon\IeC {\'a}n\IeC {\'\i } povelu}{12}{0}{5}
\beamer@sectionintoc {6}{Aplikace}{14}{0}{6}
\beamer@sectionintoc {7}{Zaver}{16}{0}{7}
